<svg class="icon" xmlns="http://www.w3.org/2000/svg" viewBox="0 0 82.5576 61.4565">
  <title>icon-academic</title>
  <path d="M41.5352,38.769,0,19.3823,41.5244,0,82.5576,19.0737ZM7.0928,19.3823,41.5166,35.4507l34.0176-16.333L41.5273,3.31Z" style="fill:#383735" />
  <path
    d="M41.209,61.4565l-1.2-2.0058c-4.9644-8.31-15.127-12.5342-15.229-12.5762l1.1348-2.7773c.4233.1728,9.7685,4.0615,15.4711,11.9912,3.2227-3.9629,12.1036-13.336,25.03-14.8369V29.7666h3v14.25l-1.3955.0977C52.5547,45.1958,42.6318,59.3862,42.5332,59.53Z"
    style="fill:#383735"
  />
  <rect x="13.9795" y="29.7666" width="3" height="13.8833" style="fill:#383735" />
  <path
    d="M24.5441,53.2885a3.3166,3.3166,0,0,0-1.8571-2.971V28.6235l19.1782-7.853L40.728,17.9941,19.687,26.61V50.35a3.3008,3.3008,0,0,0,0,5.8777v2.2963l-.88,2.1084h.88v0h3v0h.9392l-.9392-2.2473V56.2594A3.3165,3.3165,0,0,0,24.5441,53.2885Z"
    style="fill:#bc9d5e"
  />
</svg>
