<svg class="icon" xmlns="http://www.w3.org/2000/svg" viewBox="0 0 24 23.97">
  <title>Applications</title>
  <path d="M4,4h9.84v9.84H4V4ZM28,4v9.84H18.19V4H28ZM4,18.16h9.84V28H4V18.16Zm14.16,0H28V28H18.19V18.16Z"
    transform="translate(-4.03 -4.03)"></path>
</svg>