<svg class="icon" xmlns="http://www.w3.org/2000/svg" viewBox="0 0 24 32">
  <title>Bookmarks</title>
  <path d="M24,2H6V26L4,28V0H24V2Zm4,2V32L18,22,8,32V4H28Z" transform="translate(-4)"></path>
</svg>