<svg class="icon" xmlns="http://www.w3.org/2000/svg" viewBox="0 0 32 21.66">
  <title>Email</title>
  <path d="M11.88,14.28l-10.5-9a0.19,0.19,0,0,1,.13,0,0.34,0.34,0,0,0,.16,0,0.19,0.19,0,0,1,.13,0,0.19,0.19,0,0,0,.13,0l28.19,0a0.1,0.1,0,0,1,.13,0,0.24,0.24,0,0,0,.16,0,0.19,0.19,0,0,1,.13,0,0.1,0.1,0,0,0,.13,0l-10.5,9L16,17.63v0Zm-1.34,1.19L0.13,25.53a0.61,0.61,0,0,0-.06-0.19,0.15,0.15,0,0,1,0-.12V25.06a0.29,0.29,0,0,1,0-.19V7A1.12,1.12,0,0,1,.06,6.69a0.24,0.24,0,0,0,0-.16v0ZM31.94,6.69A1.18,1.18,0,0,1,32,7V25.22c0,0.09-.09.19-0.13,0.28v0L21.47,15.47,31.91,6.56a0.24,0.24,0,0,0,0,.13h0ZM20.06,16.59L30.59,26.75a0.19,0.19,0,0,0-.12,0,0.1,0.1,0,0,1-.12,0,0.19,0.19,0,0,0-.12,0,0.1,0.1,0,0,1-.12,0v0l-28.19,0a0.1,0.1,0,0,1-.12,0,0.19,0.19,0,0,0-.12,0,0.1,0.1,0,0,1-.12,0,0.19,0.19,0,0,0-.12,0L11.94,16.63,16,19.94Z"
    transform="translate(0 -5.19)" />
</svg>