<svg class="icon" xmlns="http://www.w3.org/2000/svg" viewBox="0 0 24 24">
  <circle class="st0" cx="12" cy="12" r="12" style="fill:#FFFFFF;" />
  <g>
    <path class="st1" style="fill:#222B41;" d="M11.8,14.9H6.6v-8h5v0.7H7.4v2.8h3.3V11H7.4v3.2h4.4V14.9z" />
    <path class="st1" style="fill:#222B41;" d="M16.9,14.9v-3.8c0-1.2-0.4-1.7-1.2-1.7c-1.1,0-1.9,0.9-1.9,2.2v3.3h-0.7V9h0.7v1.1c0.4-0.9,1.1-1.3,1.9-1.3 c0.7,0,1.2,0.3,1.6,0.8c0.2,0.3,0.3,0.8,0.3,1.5v3.7H16.9z"
    />
  </g>
</svg>