<svg class="icon" xmlns="http://www.w3.org/2000/svg" viewBox="0 0 27.97 32">
  <title>File Word</title>
  <path d="M28.22,6.22l0,0a6.31,6.31,0,0,1,1.28,2,6.42,6.42,0,0,1,.5,2.31v19a2.42,2.42,0,0,1-.72,1.75,2.53,2.53,0,0,1-1.78.75H4.5a2.45,2.45,0,0,1-1.75-.75A2.57,2.57,0,0,1,2,29.5V2.5A2.51,2.51,0,0,1,4.5,0h15a6.44,6.44,0,0,1,2.31.5,6.32,6.32,0,0,1,2,1.28ZM28,10.53V10.28a0.19,0.19,0,0,1,0-.12,0.19,0.19,0,0,0,0-.12H20V2.09a0.19,0.19,0,0,0-.12,0,0.19,0.19,0,0,1-.12,0H4.47a0.51,0.51,0,0,0-.34.16A0.5,0.5,0,0,0,4,2.53v27a0.51,0.51,0,0,0,.16.34,0.5,0.5,0,0,0,.34.16h23a0.51,0.51,0,0,0,.34-0.16A0.5,0.5,0,0,0,28,29.53v-19ZM22.31,3.22l-0.06-.09-0.06-.06A1.37,1.37,0,0,0,22,2.94V8h5.09S27,7.94,27,7.91a0.31,0.31,0,0,0-.12-0.16l-0.09-.06Zm3,8.78-4,16H18.13L16,18.53,13.63,28H10.22L6.69,12h3.47L12,21.94,14.38,12h3.34l2.06,9.94,1.59-7.06H20V12h5.31Z"
    transform="translate(-2 0)" />
</svg>