<svg class="icon" xmlns="http://www.w3.org/2000/svg" viewBox="0 0 32.02 32.02">
  <title>Google scholar</title>
  <path d="M24.22,2.31A16,16,0,1,1,2.28,7.81,16,16,0,0,1,24.22,2.31ZM22.94,27.94a2.84,2.84,0,0,0,1.13-1.06,4.28,4.28,0,0,0,.59-1.75,8.56,8.56,0,0,0,.13-1.84,13.6,13.6,0,0,0-.28-2.16,15.37,15.37,0,0,0,2-.78A6.87,6.87,0,0,0,29.38,18a2.53,2.53,0,0,0,.41-1.5A2.76,2.76,0,0,0,29.38,15a7.87,7.87,0,0,0-3.81-3,11.49,11.49,0,0,0-1.09-.44c0.13-.78.22-1.47,0.28-2.16a18.43,18.43,0,0,0-.12-1.91,4.11,4.11,0,0,0-1.78-2.87,4,4,0,0,0-3.41-.22,8.53,8.53,0,0,0-1.69.84A8.37,8.37,0,0,0,16,6.47c-2.19-2.06-4.81-3.41-6.91-2.37A2.64,2.64,0,0,0,7.94,5.16C6.84,7,7.22,9.25,7.5,10.94c-1.81.59-5.22,1.84-5.28,4.63a3.31,3.31,0,0,0,.44,1.5c1.09,1.78,2.69,2.53,4.88,3.47a13.37,13.37,0,0,0-.12,4,4,4,0,0,0,1.75,2.91,3.82,3.82,0,0,0,3.41.16,11.89,11.89,0,0,0,3.47-2,10.1,10.1,0,0,1,.91.72,8.88,8.88,0,0,0,4.44,1.94,3.28,3.28,0,0,0,1.56-.34h0ZM10.31,5.34c1.19-.22,3.34,1.22,4.44,2.19l0,0a20.63,20.63,0,0,0-2.19,2.5,20.84,20.84,0,0,0-3.38.47,8.88,8.88,0,0,1-.09-3.88A1.78,1.78,0,0,1,9.5,5.78a1.73,1.73,0,0,1,.81-0.44h0ZM22.81,11a18.31,18.31,0,0,0-3.37-.72,16.2,16.2,0,0,0-2.22-2.63,9.36,9.36,0,0,1,2.72-1.72,2.51,2.51,0,0,1,2.13,0A2.38,2.38,0,0,1,23,7.81,10.52,10.52,0,0,1,22.81,11ZM16,8.81A9,9,0,0,1,17,10C16.19,10,15.84,10,14.94,10a12,12,0,0,1,1-1.16h0Zm2.47,3.13a30.08,30.08,0,0,1,2.5,4.25,22.26,22.26,0,0,1-2.47,4.13,29,29,0,0,1-4.94-.16c-1.19-1.84-1.56-2.69-2.44-4.28a39.27,39.27,0,0,1,2.44-4.09,22.07,22.07,0,0,1,4.91.16h0Zm-8.84.28A12.06,12.06,0,0,1,11.19,12a18.83,18.83,0,0,0-1.06,1.75C9.88,13.09,9.69,12.53,9.59,12.22Zm12.25,1.91a12.17,12.17,0,0,0-1.06-1.84,13.83,13.83,0,0,1,1.59.34C22.25,13,22.06,13.63,21.84,14.13ZM7.91,12.59c0.16,0.53,1,2.81,1.16,3.25a23.8,23.8,0,0,0-1.13,3.06C6,18.25,3.84,17.13,3.84,15.59,3.91,13.91,6.69,13,7.91,12.59Zm15,3.69c0.22-.5.47-1.06,0.66-1.59s0.34-1,.5-1.5c1.19,0.38,4.25,1.81,4.09,3.25,0.16,1.72-3.28,2.78-4.09,3a14,14,0,0,0-1.16-3.19h0Zm-7.75,1.19a1.74,1.74,0,0,0,2.41-.62A1.71,1.71,0,0,0,17,14.44a1.77,1.77,0,1,0-1.81,3h0Zm-5,.5c0.06,0.16.78,1.38,1.06,1.81-0.56-.12-1.22-0.28-1.56-0.37C9.81,18.88,9.94,18.53,10.16,18Zm11.72,0.44v0a8.44,8.44,0,0,1,.5,1.5s-1.28.22-1.56,0.25ZM9.22,21.09a20.81,20.81,0,0,0,3.37.69c0.81,1.06,1.31,1.66,2.19,2.63-0.47.38-1,.75-1.41,1a7.32,7.32,0,0,1-1.31.66,2.43,2.43,0,0,1-2.09,0,2.38,2.38,0,0,1-1-1.84l0,0a5.67,5.67,0,0,1,0-1.47,11.73,11.73,0,0,1,.25-1.69h0ZM19.47,22c1.28-.16,2.28-0.31,3.38-0.5,0.28,1.69.47,3.25-.09,4.38a2,2,0,0,1-.62.63,1.52,1.52,0,0,1-.91.16c-1.72-.16-3.37-1.72-3.94-2.19v0A20,20,0,0,0,19.47,22h0ZM16,23.25C15.56,22.72,15.31,22.44,15,22a16.8,16.8,0,0,0,2.12.09A9.45,9.45,0,0,1,16,23.25h0Z"
    transform="translate(0.01 -0.02)" />
</svg>