<svg class="icon" xmlns="http://www.w3.org/2000/svg" viewBox="0 0 32 28">
  <title>Heart</title>
  <path d="M23,2a8.81,8.81,0,0,1,6.38,2.63,9.6,9.6,0,0,1,1.94,2.94A8.55,8.55,0,0,1,32,11a9.1,9.1,0,0,1-.66,3.44,9.15,9.15,0,0,1-2,2.94l-12,12A2,2,0,0,1,16,30a2.17,2.17,0,0,1-1.41-.59l-12-12A9.17,9.17,0,0,1,0,11,8.55,8.55,0,0,1,.69,7.56,9.6,9.6,0,0,1,2.63,4.63a9.17,9.17,0,0,1,2.94-2A9.09,9.09,0,0,1,9,2a8,8,0,0,1,3.28.66,9.12,9.12,0,0,1,2.75,2l1,1.16,1-1.22a9,9,0,0,1,2.75-1.94A8,8,0,0,1,23,2h0Z"
    transform="translate(0 -2)" />
</svg>