<svg class="icon" xmlns="http://www.w3.org/2000/svg" viewBox="0 0 32 28">
  <title>Image</title>
  <path d="M0,2V30H32V2H0ZM28,26H4V6H28V26ZM20,11a3,3,0,1,1,.88,2.13A3,3,0,0,1,20,11Zm6,5-5.78,4L12,10,6,20v4H26V16Z"
    transform="translate(0 -2)" />
</svg>