<svg class="icon" xmlns="http://www.w3.org/2000/svg" viewBox="0 0 32 25.09">
  <title>Learning Central</title>
  <path d="M31.84,10.59a0.26,0.26,0,0,1,.16.25,0.4,0.4,0,0,1-.37.34L26.28,13a5.23,5.23,0,0,1-.84.28,1.87,1.87,0,0,1-.59-0.19c-0.28-.09-6.69-2.66-6.69-2.66a3.18,3.18,0,0,1-.47-0.22,1.83,1.83,0,0,0-1.12-1.5,2.31,2.31,0,0,0-.81-0.16A2,2,0,0,0,14,9.47a1.69,1.69,0,0,0,.09,1.75,2.16,2.16,0,0,0,1.94.75c0.47-.09.63-0.25,1-0.34,4.06,1.53,5.28,2,5.63,2.19a0.26,0.26,0,0,1,.16.25c0,0.22-.16.25-0.34,0.31,0,0-6,2.22-6.37,2.22-0.22,0-.56-0.16-15.34-5.37L0.22,11A0.21,0.21,0,0,1,0,10.81a0.27,0.27,0,0,1,.19-0.25c0.16-.09.19-0.09,14.28-6.63L15.4,3.5a0.38,0.38,0,0,1,.22-0.06,0.45,0.45,0,0,1,.22.06l15.47,6.84c0.19,0.09.44,0.19,0.53,0.25h0Zm-4.94,4C28.34,17.91,29,19.38,29,19.41a1,1,0,0,1,.09.41,0.27,0.27,0,0,1-.34.13,8.44,8.44,0,0,1-1.09-.53c-0.28-.12-0.56-0.22-0.84-0.31a0.77,0.77,0,0,1-.53-0.22,5.6,5.6,0,0,1-.06-1.09V14.38a1,1,0,0,1,0-.28,0.23,0.23,0,0,1,.22-0.19,0.25,0.25,0,0,1,.28.19s0.13,0.44.16,0.5h0Zm-3.19.91v2.66c0,0.25,0,.31-0.22.34s-0.87.06-1.22,0.09a7.73,7.73,0,0,0-1.59.25,6.73,6.73,0,0,0-1.41.47,10.44,10.44,0,0,0-1.19.59,9.05,9.05,0,0,0-1.78,1.56L16,22a1.28,1.28,0,0,1-.19.22l-0.09,0c-0.16,0-.19,0-0.22-0.09l-0.25-.47a8,8,0,0,0-1-1.28A6.36,6.36,0,0,0,13,19.56,6.36,6.36,0,0,0,11.72,19,12.78,12.78,0,0,0,9,18.41a11.84,11.84,0,0,0-2.41.16,9.71,9.71,0,0,0-2,.63L4,19.47a1.32,1.32,0,0,1-.44.19,0.23,0.23,0,0,1-.19-0.06,0.29,0.29,0,0,1-.06-0.34l0.13-.37s2-4.5,2-4.5a0.3,0.3,0,0,1,.25-0.25,1.34,1.34,0,0,1,.25.06c0.25,0.06,9.81,3.53,9.81,3.53a1.66,1.66,0,0,0,.38.09,0.47,0.47,0,0,0,.25-0.06c0.09,0,6.88-2.63,7.19-2.63,0.16,0,.19.06,0.19,0.38h0Zm1.72-.75c0,0.16,0,3.66,0,4.41a0.67,0.67,0,0,1-.09.44,0.68,0.68,0,0,1-.69,0,0.38,0.38,0,0,1-.09-0.28s0-4.41,0-4.56A0.38,0.38,0,0,1,25,14.5a0.34,0.34,0,0,1,.41.25h0ZM23.78,21.5a1.24,1.24,0,1,1,2.47.06A1.22,1.22,0,0,1,25,22.78,1.17,1.17,0,0,1,23.78,21.5ZM25,23.59a0.27,0.27,0,0,1,.28.19c0.16,0.56,1.25,4.34,1.25,4.5a0.23,0.23,0,0,1-.06.16,0.32,0.32,0,0,1-.28.09H24.28a0.63,0.63,0,0,1-.56-0.19,0.52,0.52,0,0,1,0-.37l0.06-.28,0.91-3.91A0.31,0.31,0,0,1,25,23.59h0Z"
    transform="translate(0 -3.44)" />
</svg>