<svg class="icon" xmlns="http://www.w3.org/2000/svg" viewBox="0 0 32 24">
  <title>Left quote</title>
  <path d="M12,4V16a11.93,11.93,0,0,1-3.5,8.47A12,12,0,0,1,0,28V24a7.9,7.9,0,0,0,5.66-2.3 4A7.91,7.91,0,0,0,8,16H0V4H12ZM32,4V16A12,12,0,0,1,20,28V24a8,8,0,0,0,8-8H20V4H32Z"
    transform="translate(0 -4)" />
</svg>