<svg class="icon" xmlns="http://www.w3.org/2000/svg" viewBox="0 0 32 32">
  <title>LinkedIn</title>
  <path d="M27.56,0H4.44A4.44,4.44,0,0,0,0,4.44V27.56A4.44,4.44,0,0,0,4.44,32H27.56A4.44,4.44,0,0,0,32,27.56V4.44A4.44,4.44,0,0,0,27.56,0ZM16,9.78A6.22,6.22,0,1,1,9.78,16,6.22,6.22,0,0,1,16,9.78ZM28.44,27.56a0.89,0.89,0,0,1-.89.89H4.44a0.89,0.89,0,0,1-.89-0.89V13.33h3a9.78,9.78,0,1,0,18.8,0h3V27.56Zm0-18.67a0.89,0.89,0,0,1-.89.89H23.11a0.89,0.89,0,0,1-.89-0.89V4.44a0.89,0.89,0,0,1,.89-0.89h4.44a0.89,0.89,0,0,1,.89.89V8.89Z"></path>
  <path d="M29.63,0H2.36A2.34,2.34,0,0,0,0,2.31V29.69A2.34,2.34,0,0,0,2.36,32H29.63A2.34,2.34,0,0,0,32,29.69V2.31A2.34,2.34,0,0,0,29.63,0Z"
    style="fill:#007bb5"></path>
  <path d="M4.74,12H9.49V27.27H4.74V12ZM7.12,4.41A2.75,2.75,0,1,1,4.36,7.16,2.75,2.75,0,0,1,7.12,4.41" style="fill:#fff"></path>
  <path d="M12.47,12H17v2.09h0.07a5,5,0,0,1,4.49-2.47c4.8,0,5.69,3.16,5.69,7.27v8.38H22.52V19.84c0-1.77,0-4-2.47-4s-2.85,1.93-2.85,3.92v7.55H12.47V12Z"
    style="fill:#fff"></path>
</svg>