<svg class="icon" xmlns="http://www.w3.org/2000/svg" viewBox="0 0 23.97 32">
  <title>Lock</title>
  <path d="M27.41,14.59A2.1,2.1,0,0,1,28,16V30a2,2,0,0,1-2,2H6a2,2,0,0,1-2-2V16a2.06,2.06,0,0,1,.59-1.44A2.1,2.1,0,0,1,6,14H8V8A8,8,0,0,1,21.66,2.34,7.91,7.91,0,0,1,24,8v6h2a2.21,2.21,0,0,1,1.44.59h0ZM20,14V8a4.09,4.09,0,0,0-1.16-2.81A4,4,0,0,0,16,4a3.85,3.85,0,0,0-2.81,1.16A4,4,0,0,0,12,8v6ZM17.41,25.44A2.06,2.06,0,0,0,18,24a2.09,2.09,0,0,0-.56-1.41A2,2,0,0,0,16,22a1.91,1.91,0,0,0-1.41.56A2,2,0,0,0,14,24a2,2,0,0,0,.59,1.44A2.07,2.07,0,0,0,16,26,2.21,2.21,0,0,0,17.41,25.44Z"
    transform="translate(-4 0)" />
</svg>