<svg class="icon" xmlns="http://www.w3.org/2000/svg" viewBox="0 0 20 32">
  <title>Marker</title>
  <path d="M15.94,32l1.59-2.28c1-1.53,2.19-3.34,3.44-5.47C23.47,20,26,15,26,11.88a12.55,12.55,0,0,0-1.56-6.81C22.31,1.84,19.63.47,17.53,0.19L15.94,0l-1.53.19A9.61,9.61,0,0,0,11,1.53C8.47,3,6,6,6,11.94a14.49,14.49,0,0,0,1.56,5.66,86.84,86.84,0,0,0,6.84,12.09C15.44,31.22,15.94,32,15.94,32ZM16,6a3.95,3.95,0,0,1,4,4,4,4,0,0,1-4,4,3.82,3.82,0,0,1-2.81-1.19A3.82,3.82,0,0,1,12,10,4,4,0,0,1,16,6Z"
    transform="translate(-6 0)" />
</svg>