<svg class="icon" xmlns="http://www.w3.org/2000/svg" viewBox="0 0 20 32">
  <title>Mobile</title>
  <path d="M9,0H23a3,3,0,0,1,3,3V29a3,3,0,0,1-3,3H9a3,3,0,0,1-3-3V3A3,3,0,0,1,9,0Zm3,2.5h8v-1H12v1ZM24,4H8V24H24V4ZM16,30a2.06,2.06,0,0,0,1.44-.59A2,2,0,0,0,18,28a1.93,1.93,0,0,0-2-2,2,2,0,0,0-1.41.56A2.06,2.06,0,0,0,14,28,2,2,0,0,0,16,30Z"
    transform="translate(-6)" />
</svg>