<svg class="icon" xmlns="http://www.w3.org/2000/svg" viewBox="0 0 28 32">
  <title>Office 365</title>
  <path d="M30,2.59V29.16L19.75,32,2,25.63V6.31L19.69,0ZM20,4.88L8,7.66V23.34L2.94,25.5,20,28V4.88Z" transform="translate(-2 0)"
  />
</svg>