<svg class="icon" xmlns="http://www.w3.org/2000/svg" viewBox="0 0 28 32">
  <title>Paperclip</title>
  <path d="M21.81,10.22L11.66,20.38a1.37,1.37,0,0,0-.41,1,1.44,1.44,0,0,0,.41,1,1.47,1.47,0,0,0,2,0L25.88,10.22a4.31,4.31,0,0,0-6.09-6.09L7,16.91v0H7A7.1,7.1,0,0,0,4.88,22,7.15,7.15,0,0,0,12,29.12,7.1,7.1,0,0,0,17.06,27h0v0l8.72-8.72,2,2-8.75,8.75A10,10,0,0,1,2,22,9.91,9.91,0,0,1,4.94,14.9H5v0L17.75,2.09A7.18,7.18,0,0,1,27.91,12.25L15.72,24.44a4.31,4.31,0,0,1-6.09-6.09L19.78,8.19Z"
    transform="translate(-2 0)" />
</svg>