<svg class="icon" xmlns="http://www.w3.org/2000/svg" viewBox="0 0 32 30.44">
  <title>Star outline</title>
  <path d="M24,20.22l1.88,11L16,26,6.13,31.22,8,20.22,0,12.41l11.06-1.59L16,0.78l4.94,10L32,12.41Zm-1,7-1.31-7.78,5.66-5.5L19.5,12.81,16,5.72l-3.5,7.09L4.69,13.94l5.66,5.5L9,27.22l7-3.69Z"
    transform="translate(0 -0.78)" />
</svg>