<svg class="icon" xmlns="http://www.w3.org/2000/svg" viewBox="0 0 32 32">
  <title>Ticket</title>
  <path d="M29,7l2.31,2.31a2.41,2.41,0,0,1,0,3.38L12.69,31.31a2.41,2.41,0,0,1-3.38,0L7,29l1-1a3,3,0,0,0,.84-2A2.88,2.88,0,0,0,6,23.16,3,3,0,0,0,4,24L3,25,0.69,22.69a2.41,2.41,0,0,1,0-3.38L19.31,0.69a2.41,2.41,0,0,1,3.38,0L25,3,24,4a3.14,3.14,0,0,0-.84,2A2.88,2.88,0,0,0,26,8.84,3,3,0,0,0,28,8Zm-3,7L18,6,6,18l8,8ZM14,22l8-8-4-4-8,8Z"
    transform="translate(0 0)" />
</svg>