<svg class="icon" xmlns="http://www.w3.org/2000/svg" viewBox="0 0 400 300.29">
    <title>video icon</title>
    <path d="M149.76,299.18V99l125.12,100.1ZM324.93,48.94l.39-.4H75.07a73.84,73.84,0,0,0-52.78,21.9A73.5,73.5,0,0,0,0,123.62V273.76a75.44,75.44,0,0,0,74.68,75.08H325.32A74.77,74.77,0,0,0,400,274.15V123.62a74.76,74.76,0,0,0-75.07-74.68Z" 
    transform="translate(0 -48.54)"/>
</svg>