<svg class="icon" xmlns="http://www.w3.org/2000/svg" viewBox="0 0 246 470.6416">
<title>icon-walking</title>
<path d="M111.5,76.0217a35.4408,35.4408,0,0,0,26-12,36.8791,36.8791,0,0,0,10-27,37.9479,37.9479,0,0,0-11.5-26.5,34.4434,34.4434,0,0,0-26.5-10.5,35.4408,35.4408,0,0,0-26,12,38.7526,38.7526,0,0,0-10.5,27,35.35,35.35,0,0,0,11.5,26.5A36.0091,36.0091,0,0,0,111.5,76.0217Z" style="fill:#010002"/>
<path d="M238,202.5217l-55-30-45-72q-13.0005-16.0005-32-16-13.0005,0-25,11l-68,69a21.9992,21.9992,0,0,0-4,9l-9,77v2a16.3692,16.3692,0,0,0,5,12,16.37,16.37,0,0,0,12,5,14.7849,14.7849,0,0,0,11.5-5,21.5751,21.5751,0,0,0,5.5-11l7-66,24-24-22,184L4,434.5227a35.0066,35.0066,0,0,0-2,11.002,25.1549,25.1549,0,0,0,7.5,18.5,22.0962,22.0962,0,0,0,18.5,6.5q15,0,22-14l42-94.002a11.417,11.417,0,0,1,1-3.5q1.002-2.505,2-4.5a8.8869,8.8869,0,0,0,1-4l5-45.001,43,148.003q7,18,25,17a23.984,23.984,0,0,0,17.5-7.5,25.1549,25.1549,0,0,0,7.5-18.5,8.1735,8.1735,0,0,0-.5-2.5,8.2508,8.2508,0,0,1-.5-2.502l-60-205.001,7-67,17,27a17.8457,17.8457,0,0,0,5,5l59,33q6,2,8,2a15.6588,15.6588,0,0,0,12-5.5,18.08,18.08,0,0,0,5-12.5Q246,207.5217,238,202.5217Z" style="fill:#010002"/>
</svg>