<svg class="icon" xmlns="http://www.w3.org/2000/svg" viewBox="0 0 32 22.26">
  <title>Wikipedia</title>
  <path d="M32,4.94V5.59a0.22,0.22,0,0,1-.25.25A5.28,5.28,0,0,0,30.66,6a1.87,1.87,0,0,0-.81.44,1.82,1.82,0,0,0-.53.66,4.57,4.57,0,0,0-.44.87L28,10.19c-0.59,1.47-1.25,3.19-2,5.16-1.56,4-3.41,8.47-4.31,10.72-0.37.72-.69,1.06-1,1a1.38,1.38,0,0,1-1-1.09L19,24.35c-0.28-.66-0.59-1.34-0.91-2.12-0.66-1.5-1.34-3.16-1.94-4.56l-1,2.25-1,2.34c-0.69,1.53-1.34,2.91-1.75,3.78a2.94,2.94,0,0,1-.59.84,0.64,0.64,0,0,1-.53.25,1.41,1.41,0,0,1-.94-1.06C9.37,23.66,7.9,20.31,6.5,17s-2.84-6.66-3.72-9C2.68,7.72,2.62,7.5,2.53,7.31a3.18,3.18,0,0,1-.22-0.47,2,2,0,0,0-.37-0.59A1.56,1.56,0,0,0,1.37,6,6.27,6.27,0,0,0,.43,5.85,0.77,0.77,0,0,1,.12,5.78,0.17,0.17,0,0,1,0,5.63V5l0.22-.06H7.53L7.81,5V5.6a0.2,0.2,0,0,1-.16.19,1.58,1.58,0,0,1-.37.06l-1,.06a1.37,1.37,0,0,0-.72.16,0.55,0.55,0,0,0-.25.47,1.57,1.57,0,0,0,.06.34L5.47,7.13,5.56,7.41c0.34,1,.91,2.31,1.63,4,1.44,3.47,2.94,7,4,9.47,0.53,1.25.78,1.88,0.78,1.88l0.19,0.06,3.22-7a5.56,5.56,0,0,1-.25-0.66C15,15,15,14.82,14.9,14.66a2.06,2.06,0,0,1-.12-0.31l-0.06-.09L12.53,9.5l-0.06-.16A2.1,2.1,0,0,1,12.28,9C12.15,8.69,12,8.38,11.93,8.22A16.41,16.41,0,0,0,11,6.28a1.35,1.35,0,0,0-1-.44,0.67,0.67,0,0,1-.31-0.06,0.17,0.17,0,0,1-.12-0.16V5l0-.06h5.66V5.78a0.24,0.24,0,0,1-.16.06l-0.28.06c-0.53,0-.75.19-0.75,0.5A5.35,5.35,0,0,0,14.65,8l2.13,4.75,2.34-5.13L19.34,7a2.34,2.34,0,0,0,.06-0.37,0.61,0.61,0,0,0-.12-0.44A0.71,0.71,0,0,0,19,6a2.38,2.38,0,0,0-.78-0.12l-0.25,0h0s0,0,0,0,0,0,0,0a0.07,0.07,0,0,1-.06-0.06s0,0,0,0V4.88h5.28L23.12,5V5.6a0.22,0.22,0,0,1-.25.25A2.28,2.28,0,0,0,22,6a1.22,1.22,0,0,0-.47.5,4.31,4.31,0,0,0-.34.59l-0.25.44L20.65,8l-3,6.25a0.06,0.06,0,0,0,0,.06v0.06s0,0.06-.06.09l3.72,8.34,0.22,0.06L27.31,7.63a2.17,2.17,0,0,0,.16-0.81,0.85,0.85,0,0,0-.25-0.5A1,1,0,0,0,26.81,6a2.16,2.16,0,0,0-.75-0.12l-0.59,0H25.4a0.06,0.06,0,0,1-.06,0,0.12,0.12,0,0,1-.09,0H25.18l-0.06-.06a0.12,0.12,0,0,1-.09,0l-0.09-.06s-0.06,0-.06,0V4.94l0.5-.06H32Z"
    transform="translate(0 -4.88)" />
</svg>