<svg class="icon" xmlns="http://www.w3.org/2000/svg" viewBox="0 0 31.23 26.56">
  <title>Yammer</title>
  <path d="M5.13,26a3.68,3.68,0,0,1-2.72.53,1.59,1.59,0,0,0-1.84,1.5c-0.09,1.25,1.5,1.53,1.5,1.53a8.21,8.21,0,0,0,4.53-.69,7.32,7.32,0,0,0,2.53-3.37L17.19,5.69a1.77,1.77,0,0,0-.91-2.34c-1.5-.37-2.06.84-2.44,1.72-1.56,4.84-5,13.16-5,13.16S4.31,6.81,3.75,5.12C3.34,4.06,2.84,2.75,1.12,3.19S0.25,6.12.25,6.12L7.09,22.59,6.44,24A4.93,4.93,0,0,1,5.12,26h0ZM18,12.59a6,6,0,0,0,2.91-.47c1.25-.41,4.31-2,5.69-2.62a1.56,1.56,0,0,0,.88-2.37,1.46,1.46,0,0,0-2-.59c-0.41.13-5.44,3.78-6.19,4.44A6.71,6.71,0,0,0,18,12.59Zm2.31,4.25a6.7,6.7,0,0,0,2.81,1c1.28,0.22,4.81.25,6.28,0.41a1.51,1.51,0,0,0,1.78-1.69,1.34,1.34,0,0,0-1.37-1.47,53.75,53.75,0,0,0-7.56.94,3.36,3.36,0,0,0-1.94.81h0Zm-2.28,3.91c0,0.72,1.44,1.84,2,2.25,1,0.88,3.84,2.81,5.06,3.66a1.52,1.52,0,0,0,2.44-.53A1.33,1.33,0,0,0,27,24.19c-0.78-.47-5.37-2.72-6.31-3a7.83,7.83,0,0,0-2.66-.41h0Z"
    transform="translate(0.01 -3.1)" />
</svg>